TopicNr;sugar;bad;consume;sister;like;father;spend;time;drive;around;dance;practice;doctor;suggest;cause;increase;stress;blood;pressure;feel;perform;well;school;better;health;expert;not;good;lifestyle;brocolli;eat;brother;mother;baseball;tension;never;do;professional
Topic1;0;0;0;0;2;0;0;0;0;0;0;0;0;0;2;0;0;0;0;0;0;0;0;0;4;0;0;0;0;3;0;0;0;0;1;0;0;0
Topic2;0;0;0;0;0;0;0;2;0;0;1;0;0;0;0;2;0;2;0;0;0;0;0;0;0;0;2;0;1;0;2;0;0;1;0;0;0;0
Topic3;3;0;0;3;0;0;0;0;0;0;0;0;1;0;0;0;0;0;0;0;2;2;2;0;0;0;0;0;0;0;0;0;0;0;0;0;0;0
Topic4;0;0;0;0;0;3;2;0;6;2;0;2;0;0;0;0;1;0;0;0;0;0;0;0;0;2;0;4;0;0;0;3;3;0;0;0;0;0
Topic5;0;1;1;0;0;0;0;0;0;0;0;0;0;2;0;0;0;0;4;2;0;0;0;2;0;0;0;0;0;0;0;0;0;0;0;1;1;1
