N_TOPIC;Fold#1;Fold#2;Fold#3;Fold#4;Fold#5
5;58.9722156006505;46.7853308810302;50.0608131866037;43.7113704968996;84.2284845488817
10;50.170628544719;42.9469820762883;40.3218282962368;40.4975489888912;62.8566721385811
15;43.9291013407821;40.2910167615883;45.0736327749868;39.6453918986375;53.644898932798
20;42.3689699965815;39.7027527782671;42.2101073794065;37.7429659534353;48.3721488349064
25;45.7510386441242;38.1415585939701;39.232634957938;38.4804006896;47.220082867376
30;40.0514465275211;38.2422521462397;39.2494169662943;38.771889875513;46.6591866666903
