TopicSrc;TopicTarget;#1_nWord;TopicTarget;#1_wRank;TopicTarget;#1_wFreq;TopicTarget;#2_nWord;TopicTarget;#2_wRank;TopicTarget;#2_wFreq;TopicTarget;#3_nWord;TopicTarget;#3_wRank;TopicTarget;#3_wFreq;TopicTarget;#4_nWord;TopicTarget;#4_wRank;TopicTarget;#4_wFreq;TopicTarget;#5_nWord;TopicTarget;#5_wRank;TopicTarget;#5_wFreq
Topic1;Topic3;7;Topic3;4.6;Topic3;6.38;Topic1;5;Topic1;3.4;Topic1;4.62;Topic4;5;Topic2;3.2;Topic4;4.44;Topic2;4;Topic4;2.9;Topic2;3.89;Topic5;1;Topic5;0.2;Topic5;0.89
Topic2;Topic5;6;Topic5;5.5;Topic5;5.87;Topic2;3;Topic2;2.5;Topic2;2.92;Topic3;1;Topic3;0.4;Topic3;0.84;Topic1;0;Topic1;0;Topic1;0;Topic4;0;Topic4;0;Topic4;0
Topic3;Topic4;5;Topic4;4.4;Topic4;4.84;Topic1;3;Topic2;2.3;Topic2;2.84;Topic2;3;Topic1;2.2;Topic1;2.74;Topic3;3;Topic3;1.7;Topic3;2.73;Topic5;0;Topic5;0;Topic5;0
Topic4;Topic1;3;Topic5;2.4;Topic5;2.88;Topic5;3;Topic1;1.9;Topic1;2.62;Topic2;2;Topic2;1.3;Topic2;1.91;Topic3;1;Topic4;1;Topic4;0.99;Topic4;1;Topic3;0.9;Topic3;0.91
Topic5;Topic1;5;Topic1;4.2;Topic1;4.77;Topic2;3;Topic2;2.6;Topic3;2.97;Topic3;3;Topic3;2.4;Topic2;2.83;Topic4;3;Topic4;1.8;Topic4;2.75;Topic5;1;Topic5;1;Topic5;0.97
