TopicNr;#1;freqAbs;#2;freqAbs;#3;freqAbs;#4;freqAbs;#5;freqAbs;#6;freqAbs;#7;freqAbs;#8;freqAbs;#9;freqAbs;#10;freqAbs
Topic1;drive;5;sister;3;father;2;practice;2;bad;1;consume;1;like;1;around;1;sugar;0;spend;0
Topic2;pressure;2;feel;2;perform;2;well;2;school;2;better;2;brocolli;2;around;1;eat;1;never;1
Topic3;good;4;sugar;3;health;3;increase;2;expert;2;like;1;stress;1;brocolli;1;eat;1;baseball;1
Topic4;spend;2;time;2;suggest;2;cause;2;pressure;2;father;1;drive;1;dance;1;blood;1;not;1
Topic5;brother;3;mother;3;doctor;1;blood;1;health;1;not;1;lifestyle;1;tension;1;sugar;0;bad;0
